<?xml version="1.0" encoding="utf-8"?>
<!-- Generator: Adobe Illustrator 28.0.0, SVG Export Plug-In . SVG Version: 6.00 Build 0)  -->
<svg version="1.1" id="b" xmlns="http://www.w3.org/2000/svg" xmlns:xlink="http://www.w3.org/1999/xlink" x="0px" y="0px"
	 viewBox="0 0 503 491" style="enable-background:new 0 0 503 491;" xml:space="preserve">
<style type="text/css">
	.st0{fill:#515259;}
	.st1{fill:#4D4D4F;}
</style>
<g id="c">
	<path class="st0" d="M479,88.9c-38.5,0-70,31.3-70,69.8v178c0,31.8-25.7,57.5-57.5,57.5S294,368.5,294,336.7l0,0v-193
		c0-34.5-28-62.5-62.5-62.5s-62.5,28-62.5,62.5v119.6c0,26.3-21.1,47.8-47.3,47.8H10v12h111.7c32.9,0,59.3-26.9,59.3-59.8V143.7
		c0-27.9,22.6-50.5,50.5-50.5s50.5,22.6,50.5,50.5v193c0,38.5,31.2,69.8,69.7,69.8c38.3,0,69.3-31.1,69.3-69.4c0-0.1,0-0.2,0-0.4
		v-178c0-31.9,26.2-57.8,58-57.8s6-2.7,6-6S482.3,88.9,479,88.9z"/>
	<path class="st1" d="M497,479h-34v-7c0-3.3-2.7-6-6-6s-6,2.7-6,6v7h-36v-17c0-3.3-2.7-6-6-6s-6,2.7-6,6v17h-37v-7c0-3.3-2.7-6-6-6
		s-6,2.7-6,6v7h-36v-17c0-3.3-2.7-6-6-6s-6,2.7-6,6v17h-36v-7c0-3.3-2.7-6-6-6s-6,2.7-6,6v7h-36v-17c0-3.3-2.7-6-6-6s-6,2.7-6,6v17
		h-37v-7c0-3.3-2.7-6-6-6s-6,2.7-6,6v7h-36v-17c0-3.3-2.7-6-6-6s-6,2.7-6,6v17H77v-7c0-3.3-2.7-6-6-6s-6,2.7-6,6v7H12v-37h7
		c3.3,0,6-2.7,6-6s-2.7-6-6-6h-7v-36h18c3.3,0,6-2.7,6-6s-2.7-6-6-6H12v-37h7c3.3,0,6-2.7,6-6s-2.7-6-6-6h-7v-36h18c3.3,0,6-2.7,6-6
		s-2.7-6-6-6H12v-36h7c3.3,0,6-2.7,6-6s-2.7-6-6-6h-7v-36h18c3.3,0,6-2.7,6-6s-2.7-6-6-6H12v-37h7c3.3,0,6-2.7,6-6s-2.7-6-6-6h-7
		v-36h18c3.3,0,6-2.7,6-6s-2.7-6-6-6H12V56h7c3.3,0,6-2.7,6-6s-2.7-6-6-6h-7V6c0-3.3-2.7-6-6-6S0,2.7,0,6v478c0,3.3,3.7,7,7,7h490
		c3.3,0,6-2.7,6-6S500.3,479,497,479L497,479z"/>
</g>
</svg>
